3.22 7.24 3.45 0 1.8 2.33 4.26 0 1.34 0.66
4.38 8.3 8.98 0 5.84 4.2 6.85 6.66 3.57 7.33
3.11 0.56 9.69 4.14 5.32 5.08 5.71 8.11 1.21 7.37
3.99 2.32 10.38 1.6 9.33 9.83 10.64 4.14 9.23 4.94
3.62 4.57 3.36 10.72 4.85 11.94 7.52 11.93 10.26 3.73
11.03 6.7 5.55 11.14 4.15 10.45 5.91 10.06 3.67 4.19
4.58 6.99 13.29 9.76 4.94 13.03 7.47 5.85 9.98 10.36
13.73 14.28 13.79 13.55 7.91 10.73 9.71 9.99 14.06 5.18
10.27 11.83 13.52 15.76 8.17 6.75 10.29 12.78 6.16 13.52
14.41 11.81 14.48 12.24 7.06 7.97 9.59 16.64 7.79 13.34
8.31 15.61 12.03 10.77 13.84 14.99 16.95 17.35 11.97 8.75
17.33 18.04 18.15 15.46 17.35 10.67 13.98 17.74 16.83 12.19
